('C:\\Users\\User\\Desktop\\Всё\\programming\\yandex\\Введение в репозитории. '
 'Подключение в PyCharm. Работа с удаленным '
 'репозиторием\\espresso\\build\\main\\main.pkg',
 {'BINARY': 1,
  'DATA': 1,
  'EXECUTABLE': 1,
  'EXTENSION': 1,
  'PYMODULE': 1,
  'PYSOURCE': 1,
  'PYZ': 0,
  'SPLASH': 1},
 [('PYZ-00.pyz',
   'C:\\Users\\User\\Desktop\\Всё\\programming\\yandex\\Введение в '
   'репозитории. Подключение в PyCharm. Работа с удаленным '
   'репозиторием\\espresso\\build\\main\\PYZ-00.pyz',
   'PYZ'),
  ('struct',
   'c:\\users\\user\\appdata\\local\\programs\\python\\python38\\lib\\struct.pyo',
   'PYMODULE'),
  ('pyimod01_os_path',
   'c:\\users\\user\\appdata\\local\\programs\\python\\python38\\lib\\site-packages\\PyInstaller\\loader\\pyimod01_os_path.pyc',
   'PYMODULE'),
  ('pyimod02_archive',
   'c:\\users\\user\\appdata\\local\\programs\\python\\python38\\lib\\site-packages\\PyInstaller\\loader\\pyimod02_archive.pyc',
   'PYMODULE'),
  ('pyimod03_importers',
   'c:\\users\\user\\appdata\\local\\programs\\python\\python38\\lib\\site-packages\\PyInstaller\\loader\\pyimod03_importers.pyc',
   'PYMODULE'),
  ('pyimod04_ctypes',
   'c:\\users\\user\\appdata\\local\\programs\\python\\python38\\lib\\site-packages\\PyInstaller\\loader\\pyimod04_ctypes.pyc',
   'PYMODULE'),
  ('pyiboot01_bootstrap',
   'c:\\users\\user\\appdata\\local\\programs\\python\\python38\\lib\\site-packages\\PyInstaller\\loader\\pyiboot01_bootstrap.py',
   'PYSOURCE'),
  ('pyi_rth_pkgutil',
   'C:\\Users\\User\\AppData\\Local\\Programs\\Python\\Python38\\Lib\\site-packages\\PyInstaller\\hooks\\rthooks\\pyi_rth_pkgutil.py',
   'PYSOURCE'),
  ('pyi_rth_multiprocessing',
   'C:\\Users\\User\\AppData\\Local\\Programs\\Python\\Python38\\Lib\\site-packages\\PyInstaller\\hooks\\rthooks\\pyi_rth_multiprocessing.py',
   'PYSOURCE'),
  ('pyi_rth_inspect',
   'C:\\Users\\User\\AppData\\Local\\Programs\\Python\\Python38\\Lib\\site-packages\\PyInstaller\\hooks\\rthooks\\pyi_rth_inspect.py',
   'PYSOURCE'),
  ('pyi_rth_pyqt5',
   'C:\\Users\\User\\AppData\\Local\\Programs\\Python\\Python38\\Lib\\site-packages\\PyInstaller\\hooks\\rthooks\\pyi_rth_pyqt5.py',
   'PYSOURCE'),
  ('main',
   'C:\\Users\\User\\Desktop\\Всё\\programming\\yandex\\Введение в '
   'репозитории. Подключение в PyCharm. Работа с удаленным '
   'репозиторием\\espresso\\main.py',
   'PYSOURCE'),
  ('VCRUNTIME140.dll',
   'c:\\users\\user\\appdata\\local\\programs\\python\\python38\\VCRUNTIME140.dll',
   'BINARY'),
  ('python38.dll',
   'c:\\users\\user\\appdata\\local\\programs\\python\\python38\\python38.dll',
   'BINARY'),
  ('PyQt5\\Qt5\\plugins\\platforms\\qwebgl.dll',
   'C:\\users\\user\\appdata\\local\\programs\\python\\python38\\lib\\site-packages\\PyQt5\\Qt5\\plugins\\platforms\\qwebgl.dll',
   'BINARY'),
  ('PyQt5\\Qt5\\plugins\\styles\\qwindowsvistastyle.dll',
   'C:\\users\\user\\appdata\\local\\programs\\python\\python38\\lib\\site-packages\\PyQt5\\Qt5\\plugins\\styles\\qwindowsvistastyle.dll',
   'BINARY'),
  ('PyQt5\\Qt5\\plugins\\imageformats\\qtiff.dll',
   'C:\\users\\user\\appdata\\local\\programs\\python\\python38\\lib\\site-packages\\PyQt5\\Qt5\\plugins\\imageformats\\qtiff.dll',
   'BINARY'),
  ('PyQt5\\Qt5\\plugins\\imageformats\\qtga.dll',
   'C:\\users\\user\\appdata\\local\\programs\\python\\python38\\lib\\site-packages\\PyQt5\\Qt5\\plugins\\imageformats\\qtga.dll',
   'BINARY'),
  ('PyQt5\\Qt5\\plugins\\platformthemes\\qxdgdesktopportal.dll',
   'C:\\users\\user\\appdata\\local\\programs\\python\\python38\\lib\\site-packages\\PyQt5\\Qt5\\plugins\\platformthemes\\qxdgdesktopportal.dll',
   'BINARY'),
  ('d3dcompiler_47.dll',
   'C:\\users\\user\\appdata\\local\\programs\\python\\python38\\lib\\site-packages\\PyQt5\\Qt5\\bin\\d3dcompiler_47.dll',
   'BINARY'),
  ('opengl32sw.dll',
   'C:\\users\\user\\appdata\\local\\programs\\python\\python38\\lib\\site-packages\\PyQt5\\Qt5\\bin\\opengl32sw.dll',
   'BINARY'),
  ('PyQt5\\Qt5\\plugins\\imageformats\\qwbmp.dll',
   'C:\\users\\user\\appdata\\local\\programs\\python\\python38\\lib\\site-packages\\PyQt5\\Qt5\\plugins\\imageformats\\qwbmp.dll',
   'BINARY'),
  ('libGLESv2.dll',
   'C:\\users\\user\\appdata\\local\\programs\\python\\python38\\lib\\site-packages\\PyQt5\\Qt5\\bin\\libGLESv2.dll',
   'BINARY'),
  ('PyQt5\\Qt5\\plugins\\imageformats\\qgif.dll',
   'C:\\users\\user\\appdata\\local\\programs\\python\\python38\\lib\\site-packages\\PyQt5\\Qt5\\plugins\\imageformats\\qgif.dll',
   'BINARY'),
  ('PyQt5\\Qt5\\plugins\\platforms\\qoffscreen.dll',
   'C:\\users\\user\\appdata\\local\\programs\\python\\python38\\lib\\site-packages\\PyQt5\\Qt5\\plugins\\platforms\\qoffscreen.dll',
   'BINARY'),
  ('PyQt5\\Qt5\\plugins\\iconengines\\qsvgicon.dll',
   'C:\\users\\user\\appdata\\local\\programs\\python\\python38\\lib\\site-packages\\PyQt5\\Qt5\\plugins\\iconengines\\qsvgicon.dll',
   'BINARY'),
  ('PyQt5\\Qt5\\plugins\\imageformats\\qico.dll',
   'C:\\users\\user\\appdata\\local\\programs\\python\\python38\\lib\\site-packages\\PyQt5\\Qt5\\plugins\\imageformats\\qico.dll',
   'BINARY'),
  ('PyQt5\\Qt5\\plugins\\platforms\\qminimal.dll',
   'C:\\users\\user\\appdata\\local\\programs\\python\\python38\\lib\\site-packages\\PyQt5\\Qt5\\plugins\\platforms\\qminimal.dll',
   'BINARY'),
  ('PyQt5\\Qt5\\plugins\\imageformats\\qicns.dll',
   'C:\\users\\user\\appdata\\local\\programs\\python\\python38\\lib\\site-packages\\PyQt5\\Qt5\\plugins\\imageformats\\qicns.dll',
   'BINARY'),
  ('PyQt5\\Qt5\\plugins\\platforms\\qwindows.dll',
   'C:\\users\\user\\appdata\\local\\programs\\python\\python38\\lib\\site-packages\\PyQt5\\Qt5\\plugins\\platforms\\qwindows.dll',
   'BINARY'),
  ('PyQt5\\Qt5\\plugins\\imageformats\\qwebp.dll',
   'C:\\users\\user\\appdata\\local\\programs\\python\\python38\\lib\\site-packages\\PyQt5\\Qt5\\plugins\\imageformats\\qwebp.dll',
   'BINARY'),
  ('libEGL.dll',
   'C:\\users\\user\\appdata\\local\\programs\\python\\python38\\lib\\site-packages\\PyQt5\\Qt5\\bin\\libEGL.dll',
   'BINARY'),
  ('PyQt5\\Qt5\\plugins\\imageformats\\qjpeg.dll',
   'C:\\users\\user\\appdata\\local\\programs\\python\\python38\\lib\\site-packages\\PyQt5\\Qt5\\plugins\\imageformats\\qjpeg.dll',
   'BINARY'),
  ('PyQt5\\Qt5\\plugins\\imageformats\\qsvg.dll',
   'C:\\users\\user\\appdata\\local\\programs\\python\\python38\\lib\\site-packages\\PyQt5\\Qt5\\plugins\\imageformats\\qsvg.dll',
   'BINARY'),
  ('select',
   'c:\\users\\user\\appdata\\local\\programs\\python\\python38\\DLLs\\select.pyd',
   'EXTENSION'),
  ('unicodedata',
   'c:\\users\\user\\appdata\\local\\programs\\python\\python38\\DLLs\\unicodedata.pyd',
   'EXTENSION'),
  ('_socket',
   'c:\\users\\user\\appdata\\local\\programs\\python\\python38\\DLLs\\_socket.pyd',
   'EXTENSION'),
  ('_overlapped',
   'c:\\users\\user\\appdata\\local\\programs\\python\\python38\\DLLs\\_overlapped.pyd',
   'EXTENSION'),
  ('_ssl',
   'c:\\users\\user\\appdata\\local\\programs\\python\\python38\\DLLs\\_ssl.pyd',
   'EXTENSION'),
  ('_asyncio',
   'c:\\users\\user\\appdata\\local\\programs\\python\\python38\\DLLs\\_asyncio.pyd',
   'EXTENSION'),
  ('_queue',
   'c:\\users\\user\\appdata\\local\\programs\\python\\python38\\DLLs\\_queue.pyd',
   'EXTENSION'),
  ('_ctypes',
   'c:\\users\\user\\appdata\\local\\programs\\python\\python38\\DLLs\\_ctypes.pyd',
   'EXTENSION'),
  ('_multiprocessing',
   'c:\\users\\user\\appdata\\local\\programs\\python\\python38\\DLLs\\_multiprocessing.pyd',
   'EXTENSION'),
  ('pyexpat',
   'c:\\users\\user\\appdata\\local\\programs\\python\\python38\\DLLs\\pyexpat.pyd',
   'EXTENSION'),
  ('_decimal',
   'c:\\users\\user\\appdata\\local\\programs\\python\\python38\\DLLs\\_decimal.pyd',
   'EXTENSION'),
  ('_hashlib',
   'c:\\users\\user\\appdata\\local\\programs\\python\\python38\\DLLs\\_hashlib.pyd',
   'EXTENSION'),
  ('_lzma',
   'c:\\users\\user\\appdata\\local\\programs\\python\\python38\\DLLs\\_lzma.pyd',
   'EXTENSION'),
  ('_bz2',
   'c:\\users\\user\\appdata\\local\\programs\\python\\python38\\DLLs\\_bz2.pyd',
   'EXTENSION'),
  ('PyQt5.QtCore',
   'c:\\users\\user\\appdata\\local\\programs\\python\\python38\\lib\\site-packages\\PyQt5\\QtCore.pyd',
   'EXTENSION'),
  ('PyQt5.QtGui',
   'c:\\users\\user\\appdata\\local\\programs\\python\\python38\\lib\\site-packages\\PyQt5\\QtGui.pyd',
   'EXTENSION'),
  ('PyQt5.QtWidgets',
   'c:\\users\\user\\appdata\\local\\programs\\python\\python38\\lib\\site-packages\\PyQt5\\QtWidgets.pyd',
   'EXTENSION'),
  ('_elementtree',
   'c:\\users\\user\\appdata\\local\\programs\\python\\python38\\DLLs\\_elementtree.pyd',
   'EXTENSION'),
  ('PyQt5.sip',
   'c:\\users\\user\\appdata\\local\\programs\\python\\python38\\lib\\site-packages\\PyQt5\\sip.cp38-win_amd64.pyd',
   'EXTENSION'),
  ('_sqlite3',
   'c:\\users\\user\\appdata\\local\\programs\\python\\python38\\DLLs\\_sqlite3.pyd',
   'EXTENSION'),
  ('Qt5Gui.dll',
   'c:\\users\\user\\appdata\\local\\programs\\python\\python38\\lib\\site-packages\\PyQt5\\Qt5\\bin\\Qt5Gui.dll',
   'BINARY'),
  ('Qt5WebSockets.dll',
   'c:\\users\\user\\appdata\\local\\programs\\python\\python38\\lib\\site-packages\\PyQt5\\Qt5\\bin\\Qt5WebSockets.dll',
   'BINARY'),
  ('MSVCP140.dll', 'C:\\WINDOWS\\system32\\MSVCP140.dll', 'BINARY'),
  ('Qt5Network.dll',
   'c:\\users\\user\\appdata\\local\\programs\\python\\python38\\lib\\site-packages\\PyQt5\\Qt5\\bin\\Qt5Network.dll',
   'BINARY'),
  ('Qt5Core.dll',
   'c:\\users\\user\\appdata\\local\\programs\\python\\python38\\lib\\site-packages\\PyQt5\\Qt5\\bin\\Qt5Core.dll',
   'BINARY'),
  ('Qt5Quick.dll',
   'c:\\users\\user\\appdata\\local\\programs\\python\\python38\\lib\\site-packages\\PyQt5\\Qt5\\bin\\Qt5Quick.dll',
   'BINARY'),
  ('VCRUNTIME140_1.dll', 'C:\\WINDOWS\\system32\\VCRUNTIME140_1.dll', 'BINARY'),
  ('Qt5Widgets.dll',
   'c:\\users\\user\\appdata\\local\\programs\\python\\python38\\lib\\site-packages\\PyQt5\\Qt5\\bin\\Qt5Widgets.dll',
   'BINARY'),
  ('Qt5DBus.dll',
   'c:\\users\\user\\appdata\\local\\programs\\python\\python38\\lib\\site-packages\\PyQt5\\Qt5\\bin\\Qt5DBus.dll',
   'BINARY'),
  ('Qt5Svg.dll',
   'c:\\users\\user\\appdata\\local\\programs\\python\\python38\\lib\\site-packages\\PyQt5\\Qt5\\bin\\Qt5Svg.dll',
   'BINARY'),
  ('libssl-1_1.dll',
   'c:\\users\\user\\appdata\\local\\programs\\python\\python38\\DLLs\\libssl-1_1.dll',
   'BINARY'),
  ('libcrypto-1_1.dll',
   'c:\\users\\user\\appdata\\local\\programs\\python\\python38\\DLLs\\libcrypto-1_1.dll',
   'BINARY'),
  ('libffi-7.dll',
   'c:\\users\\user\\appdata\\local\\programs\\python\\python38\\DLLs\\libffi-7.dll',
   'BINARY'),
  ('python3.dll',
   'c:\\users\\user\\appdata\\local\\programs\\python\\python38\\python3.dll',
   'BINARY'),
  ('sqlite3.dll',
   'c:\\users\\user\\appdata\\local\\programs\\python\\python38\\DLLs\\sqlite3.dll',
   'BINARY'),
  ('MSVCP140_1.dll',
   'c:\\users\\user\\appdata\\local\\programs\\python\\python38\\lib\\site-packages\\PyQt5\\Qt5\\bin\\MSVCP140_1.dll',
   'BINARY'),
  ('Qt5Qml.dll',
   'c:\\users\\user\\appdata\\local\\programs\\python\\python38\\lib\\site-packages\\PyQt5\\Qt5\\bin\\Qt5Qml.dll',
   'BINARY'),
  ('Qt5QmlModels.dll',
   'c:\\users\\user\\appdata\\local\\programs\\python\\python38\\lib\\site-packages\\PyQt5\\Qt5\\bin\\Qt5QmlModels.dll',
   'BINARY'),
  ('base_library.zip',
   'C:\\Users\\User\\Desktop\\Всё\\programming\\yandex\\Введение в '
   'репозитории. Подключение в PyCharm. Работа с удаленным '
   'репозиторием\\espresso\\build\\main\\base_library.zip',
   'DATA'),
  ('PyQt5\\Qt5\\translations\\qtbase_hu.qm',
   'C:\\users\\user\\appdata\\local\\programs\\python\\python38\\lib\\site-packages\\PyQt5\\Qt5\\translations\\qtbase_hu.qm',
   'DATA'),
  ('PyQt5\\uic\\widget-plugins\\qtwebkit.py',
   'c:\\users\\user\\appdata\\local\\programs\\python\\python38\\lib\\site-packages\\PyQt5\\uic\\widget-plugins\\qtwebkit.py',
   'DATA'),
  ('PyQt5\\Qt5\\translations\\qtbase_tr.qm',
   'C:\\users\\user\\appdata\\local\\programs\\python\\python38\\lib\\site-packages\\PyQt5\\Qt5\\translations\\qtbase_tr.qm',
   'DATA'),
  ('PyQt5\\uic\\widget-plugins\\__pycache__\\qtcharts.cpython-38.pyc',
   'c:\\users\\user\\appdata\\local\\programs\\python\\python38\\lib\\site-packages\\PyQt5\\uic\\widget-plugins\\__pycache__\\qtcharts.cpython-38.pyc',
   'DATA'),
  ('PyQt5\\Qt5\\translations\\qtbase_gd.qm',
   'C:\\users\\user\\appdata\\local\\programs\\python\\python38\\lib\\site-packages\\PyQt5\\Qt5\\translations\\qtbase_gd.qm',
   'DATA'),
  ('PyQt5\\uic\\widget-plugins\\__pycache__\\qscintilla.cpython-38.pyc',
   'c:\\users\\user\\appdata\\local\\programs\\python\\python38\\lib\\site-packages\\PyQt5\\uic\\widget-plugins\\__pycache__\\qscintilla.cpython-38.pyc',
   'DATA'),
  ('PyQt5\\Qt5\\translations\\qtbase_zh_TW.qm',
   'C:\\users\\user\\appdata\\local\\programs\\python\\python38\\lib\\site-packages\\PyQt5\\Qt5\\translations\\qtbase_zh_TW.qm',
   'DATA'),
  ('PyQt5\\Qt5\\translations\\qtbase_ko.qm',
   'C:\\users\\user\\appdata\\local\\programs\\python\\python38\\lib\\site-packages\\PyQt5\\Qt5\\translations\\qtbase_ko.qm',
   'DATA'),
  ('PyQt5\\Qt5\\translations\\qtbase_pl.qm',
   'C:\\users\\user\\appdata\\local\\programs\\python\\python38\\lib\\site-packages\\PyQt5\\Qt5\\translations\\qtbase_pl.qm',
   'DATA'),
  ('PyQt5\\uic\\widget-plugins\\qscintilla.py',
   'c:\\users\\user\\appdata\\local\\programs\\python\\python38\\lib\\site-packages\\PyQt5\\uic\\widget-plugins\\qscintilla.py',
   'DATA'),
  ('PyQt5\\Qt5\\translations\\qtbase_en.qm',
   'C:\\users\\user\\appdata\\local\\programs\\python\\python38\\lib\\site-packages\\PyQt5\\Qt5\\translations\\qtbase_en.qm',
   'DATA'),
  ('PyQt5\\Qt5\\translations\\qtbase_es.qm',
   'C:\\users\\user\\appdata\\local\\programs\\python\\python38\\lib\\site-packages\\PyQt5\\Qt5\\translations\\qtbase_es.qm',
   'DATA'),
  ('PyQt5\\uic\\widget-plugins\\qaxcontainer.py',
   'c:\\users\\user\\appdata\\local\\programs\\python\\python38\\lib\\site-packages\\PyQt5\\uic\\widget-plugins\\qaxcontainer.py',
   'DATA'),
  ('PyQt5\\Qt5\\translations\\qtbase_fr.qm',
   'C:\\users\\user\\appdata\\local\\programs\\python\\python38\\lib\\site-packages\\PyQt5\\Qt5\\translations\\qtbase_fr.qm',
   'DATA'),
  ('PyQt5\\uic\\widget-plugins\\__pycache__\\qtquickwidgets.cpython-38.pyc',
   'c:\\users\\user\\appdata\\local\\programs\\python\\python38\\lib\\site-packages\\PyQt5\\uic\\widget-plugins\\__pycache__\\qtquickwidgets.cpython-38.pyc',
   'DATA'),
  ('PyQt5\\Qt5\\translations\\qtbase_bg.qm',
   'C:\\users\\user\\appdata\\local\\programs\\python\\python38\\lib\\site-packages\\PyQt5\\Qt5\\translations\\qtbase_bg.qm',
   'DATA'),
  ('PyQt5\\uic\\widget-plugins\\qtwebenginewidgets.py',
   'c:\\users\\user\\appdata\\local\\programs\\python\\python38\\lib\\site-packages\\PyQt5\\uic\\widget-plugins\\qtwebenginewidgets.py',
   'DATA'),
  ('PyQt5\\Qt5\\translations\\qtbase_fi.qm',
   'C:\\users\\user\\appdata\\local\\programs\\python\\python38\\lib\\site-packages\\PyQt5\\Qt5\\translations\\qtbase_fi.qm',
   'DATA'),
  ('PyQt5\\Qt5\\translations\\qtbase_ja.qm',
   'C:\\users\\user\\appdata\\local\\programs\\python\\python38\\lib\\site-packages\\PyQt5\\Qt5\\translations\\qtbase_ja.qm',
   'DATA'),
  ('PyQt5\\Qt5\\translations\\qtbase_lv.qm',
   'C:\\users\\user\\appdata\\local\\programs\\python\\python38\\lib\\site-packages\\PyQt5\\Qt5\\translations\\qtbase_lv.qm',
   'DATA'),
  ('PyQt5\\uic\\widget-plugins\\__pycache__\\qaxcontainer.cpython-38.pyc',
   'c:\\users\\user\\appdata\\local\\programs\\python\\python38\\lib\\site-packages\\PyQt5\\uic\\widget-plugins\\__pycache__\\qaxcontainer.cpython-38.pyc',
   'DATA'),
  ('PyQt5\\uic\\widget-plugins\\__pycache__\\qtprintsupport.cpython-38.pyc',
   'c:\\users\\user\\appdata\\local\\programs\\python\\python38\\lib\\site-packages\\PyQt5\\uic\\widget-plugins\\__pycache__\\qtprintsupport.cpython-38.pyc',
   'DATA'),
  ('PyQt5\\uic\\widget-plugins\\qtquickwidgets.py',
   'c:\\users\\user\\appdata\\local\\programs\\python\\python38\\lib\\site-packages\\PyQt5\\uic\\widget-plugins\\qtquickwidgets.py',
   'DATA'),
  ('PyQt5\\Qt5\\translations\\qtbase_it.qm',
   'C:\\users\\user\\appdata\\local\\programs\\python\\python38\\lib\\site-packages\\PyQt5\\Qt5\\translations\\qtbase_it.qm',
   'DATA'),
  ('PyQt5\\uic\\widget-plugins\\__pycache__\\qtwebenginewidgets.cpython-38.pyc',
   'c:\\users\\user\\appdata\\local\\programs\\python\\python38\\lib\\site-packages\\PyQt5\\uic\\widget-plugins\\__pycache__\\qtwebenginewidgets.cpython-38.pyc',
   'DATA'),
  ('PyQt5\\Qt5\\translations\\qtbase_sk.qm',
   'C:\\users\\user\\appdata\\local\\programs\\python\\python38\\lib\\site-packages\\PyQt5\\Qt5\\translations\\qtbase_sk.qm',
   'DATA'),
  ('PyQt5\\Qt5\\translations\\qtbase_ar.qm',
   'C:\\users\\user\\appdata\\local\\programs\\python\\python38\\lib\\site-packages\\PyQt5\\Qt5\\translations\\qtbase_ar.qm',
   'DATA'),
  ('PyQt5\\uic\\widget-plugins\\__pycache__\\qtwebkit.cpython-38.pyc',
   'c:\\users\\user\\appdata\\local\\programs\\python\\python38\\lib\\site-packages\\PyQt5\\uic\\widget-plugins\\__pycache__\\qtwebkit.cpython-38.pyc',
   'DATA'),
  ('PyQt5\\Qt5\\translations\\qtbase_he.qm',
   'C:\\users\\user\\appdata\\local\\programs\\python\\python38\\lib\\site-packages\\PyQt5\\Qt5\\translations\\qtbase_he.qm',
   'DATA'),
  ('PyQt5\\Qt5\\translations\\qtbase_uk.qm',
   'C:\\users\\user\\appdata\\local\\programs\\python\\python38\\lib\\site-packages\\PyQt5\\Qt5\\translations\\qtbase_uk.qm',
   'DATA'),
  ('PyQt5\\Qt5\\translations\\qtbase_ru.qm',
   'C:\\users\\user\\appdata\\local\\programs\\python\\python38\\lib\\site-packages\\PyQt5\\Qt5\\translations\\qtbase_ru.qm',
   'DATA'),
  ('PyQt5\\Qt5\\translations\\qtbase_cs.qm',
   'C:\\users\\user\\appdata\\local\\programs\\python\\python38\\lib\\site-packages\\PyQt5\\Qt5\\translations\\qtbase_cs.qm',
   'DATA'),
  ('PyQt5\\Qt5\\translations\\qtbase_ca.qm',
   'C:\\users\\user\\appdata\\local\\programs\\python\\python38\\lib\\site-packages\\PyQt5\\Qt5\\translations\\qtbase_ca.qm',
   'DATA'),
  ('PyQt5\\Qt5\\translations\\qtbase_de.qm',
   'C:\\users\\user\\appdata\\local\\programs\\python\\python38\\lib\\site-packages\\PyQt5\\Qt5\\translations\\qtbase_de.qm',
   'DATA'),
  ('PyQt5\\Qt5\\translations\\qtbase_da.qm',
   'C:\\users\\user\\appdata\\local\\programs\\python\\python38\\lib\\site-packages\\PyQt5\\Qt5\\translations\\qtbase_da.qm',
   'DATA'),
  ('PyQt5\\uic\\widget-plugins\\qtcharts.py',
   'c:\\users\\user\\appdata\\local\\programs\\python\\python38\\lib\\site-packages\\PyQt5\\uic\\widget-plugins\\qtcharts.py',
   'DATA'),
  ('PyQt5\\uic\\widget-plugins\\qtprintsupport.py',
   'c:\\users\\user\\appdata\\local\\programs\\python\\python38\\lib\\site-packages\\PyQt5\\uic\\widget-plugins\\qtprintsupport.py',
   'DATA'),
  ('coffee.sqlite',
   'C:\\Users\\User\\Desktop\\Всё\\programming\\yandex\\Введение в '
   'репозитории. Подключение в PyCharm. Работа с удаленным '
   'репозиторием\\espresso\\data\\coffee.sqlite',
   'DATA')],
 False,
 False,
 False,
 [],
 None,
 None,
 None)
